{
  "version": "14.0.0",
  "vulnerabilities": [
    {
      "id": "6fa2181dd7e7e09705bae1c9182e90a018932527a9586879755772d1aa0d6f07",
      "category": "sast",
      "message": "Deserialization of Untrusted Data",
      "description": "Avoid using `load()`. `PyYAML.load` can create arbitrary Python\nobjects. A malicious actor could exploit this to run arbitrary\ncode. Use `safe_load()` instead.\n",
      "cve": "",
      "severity": "Critical",
      "scanner": {
        "id": "semgrep",
        "name": "Semgrep"
      },
      "location": {
        "file": "app/app.py",
        "start_line": 329,
        "end_line": 329
      },
      "identifiers": [
        {
          "type": "semgrep_id",
          "name": "bandit.B506",
          "value": "bandit.B506"
        },
        {
          "type": "cwe",
          "name": "CWE-502",
          "value": "502",
          "url": "https://cwe.mitre.org/data/definitions/502.html"
        },
        {
          "type": "owasp",
          "name": "Insecure Deserialization",
          "value": "A8"
        },
        {
          "type": "bandit_test_id",
          "name": "Bandit Test ID B506",
          "value": "B506"
        }
      ]
    }
  ],
  "remediations": [],
  "scan": {
    "scanner": {
      "id": "semgrep",
      "name": "Semgrep",
      "url": "https://github.com/returntocorp/semgrep",
      "vendor": {
        "name": "GitLab"
      },
      "version": "0.39.1"
    },
    "type": "sast",
    "start_time": "2021-05-06T22:56:06",
    "end_time": "2021-05-06T22:56:20",
    "status": "success"
  }
}
